{
  "name": "ConfigOffering",
  "base": "PersistedModel",
  "idInjection": false,
  "options": {
    "validateUpsert": true
  },
  "postgresql": {
    "schema": "ibmx_a07e6d02edaf552",
    "table": "config_offering"
  },
  "properties": {
    "id": {
      "type": "Number",
      "id": true,
      "required": true,
      "length": null,
      "precision": 10,
      "scale": 0,
      "postgresql": {
        "columnName": "id",
        "dataType": "int",
        "dataLength": null,
        "dataPrecision": 10,
        "dataScale": 0,
        "nullable": "N"
      },
      "_selectable": false
    },
    "domain": {
      "type": "String",
      "required": false,
      "length": 50,
      "precision": null,
      "scale": null,
      "postgresql": {
        "columnName": "domain",
        "dataType": "varchar",
        "dataLength": 50,
        "dataPrecision": null,
        "dataScale": null,
        "nullable": "Y"
      },
      "_selectable": true
    },
    "category": {
      "type": "String",
      "required": false,
      "length": 50,
      "precision": null,
      "scale": null,
      "postgresql": {
        "columnName": "category",
        "dataType": "varchar",
        "dataLength": 50,
        "dataPrecision": null,
        "dataScale": null,
        "nullable": "Y"
      },
      "_selectable": true
    },
    "sourcetype": {
      "type": "String",
      "required": false,
      "length": 10,
      "precision": null,
      "scale": null,
      "postgresql": {
        "columnName": "sourcetype",
        "dataType": "varchar",
        "dataLength": 10,
        "dataPrecision": null,
        "dataScale": null,
        "nullable": "Y"
      },
      "_selectable": true
    },
    "sourcedata": {
      "type": "String",
      "required": false,
      "length": 50,
      "precision": null,
      "scale": null,
      "postgresql": {
        "columnName": "sourcedata",
        "dataType": "varchar",
        "dataLength": 50,
        "dataPrecision": null,
        "dataScale": null,
        "nullable": "Y"
      },
      "_selectable": true
    },
    "targettype": {
      "type": "String",
      "required": false,
      "length": 10,
      "precision": null,
      "scale": null,
      "postgresql": {
        "columnName": "targettype",
        "dataType": "varchar",
        "dataLength": 10,
        "dataPrecision": null,
        "dataScale": null,
        "nullable": "Y"
      },
      "_selectable": true
    },
    "targetdata": {
      "type": "String",
      "required": false,
      "length": 50,
      "precision": null,
      "scale": null,
      "postgresql": {
        "columnName": "targetdata",
        "dataType": "varchar",
        "dataLength": 50,
        "dataPrecision": null,
        "dataScale": null,
        "nullable": "Y"
      },
      "_selectable": true
    },
    "sourceapp": {
      "type": "String",
      "required": false,
      "length": 10,
      "precision": null,
      "scale": null,
      "postgresql": {
        "columnName": "sourceapp",
        "dataType": "varchar",
        "dataLength": 10,
        "dataPrecision": null,
        "dataScale": null,
        "nullable": "Y"
      },
      "_selectable": true
    }
  },
  "validations": [],
  "relations": {},
  "acls": [],
  "methods": {}
}
