{
  "name": "TdpAgendamientoCupones",
  "base": "PersistedModel",
  "idInjection": false,
  "options": {
    "validateUpsert": true
  },
  "postgresql": {
    "schema": "ibmx_a07e6d02edaf552",
    "table": "tdp_agendamiento_cupones"
  },
  "properties": {
    "id": {
      "type": "Number",
      "id": true,
      "length": null,
      "precision": 10,
      "scale": 0,
      "postgresql": {
        "columnName": "cupones_id",
        "dataType": "int",
        "dataLength": null,
        "dataPrecision": 10,
        "dataScale": 0
      },
      "_selectable": false
    },
    "franja": {
      "type": "String",
      "required": false,
      "length": 2,
      "precision": null,
      "scale": null,
      "postgresql": {
        "columnName": "cupones_franja",
        "dataType": "varchar",
        "dataLength": 2,
        "dataPrecision": null,
        "dataScale": null,
        "nullable": "Y"
      },
      "_selectable": true
    },
    "fecha": {
      "type": "Date",
      "required": true,
      "length": null,
      "precision": null,
      "scale": null,
      "postgresql": {
        "columnName": "cupones_fecha",
        "dataType": "timestamp",
        "dataLength": null,
        "dataPrecision": null,
        "dataScale": null,
        "nullable": "Y"
      },
      "_selectable": false
    },
    "cupones": {
      "type": "Number",
      "required": false,
      "length": null,
      "precision": 10,
      "scale": 0,
      "postgresql": {
        "columnName": "cupones",
        "dataType": "int",
        "dataLength": null,
        "dataPrecision": 10,
        "dataScale": 0,
        "nullable": "Y"
      },
      "_selectable": true
    },
    "utilizado": {
      "type": "Number",
      "required": false,
      "length": null,
      "precision": 10,
      "scale": 0,
      "postgresql": {
        "columnName": "cupones_utilizados",
        "dataType": "int",
        "dataLength": null,
        "dataPrecision": 10,
        "dataScale": 0,
        "nullable": "Y"
      },
      "_selectable": true
    }
  },
  "validations": [],
  "relations": {},
  "acls": [],
  "methods": {}
}