{
  "name": "NroAgents",
  "base": "PersistedModel",
  "strict": false,
  "idInjection": false,
  "options": {
    "validateUpsert": true
  },
  "postgresql": {
    "schema": "ibmx_a07e6d02edaf552",
    "table": "tdp_user_register"
  },
  "properties": {
    "codatis": {
      "type": "String",
      "required": false,
      "length": 50,
      "precision": null,
      "scale": null,
      "id": true,
      "postgresql": {
        "columnName": "codatis",
        "dataType": "String",
        "dataLength": 20,
        "dataPrecision": null,
        "dataScale": null,
        "nullable": "N"
      },
      "_selectable": false
    },"nrocelular": {
      "type": "String",
      "required": true,
      "length": 10,
      "precision": null,
      "scale": null,
      "postgresql": {
        "columnName": "nrocelular",
        "dataType": "varchar",
        "dataLength": 10,
        "dataPrecision": null,
        "dataScale": null,
        "nullable": "N"
      },
      "_selectable": false
    },"last_change": {
      "type": "String",
      "required": false,
      "length": 50,
      "precision": null,
      "scale": null,
      "postgresql": {
        "columnName": "last_change",
        "dataType": "timestamp",
        "dataLength": 50,
        "dataPrecision": null,
        "dataScale": null,
        "nullable": "N"
      },
      "_selectable": false
    } ,"canal": {
      "type": "String",
      "required": false,
      "length": 100,
      "precision": null,
      "scale": null,
      "postgresql": {
        "columnName": "canal",
        "dataType": "varchar",
        "dataLength": 100,
        "dataPrecision": null,
        "dataScale": null,
        "nullable": "Y"
      },
      "_selectable": true
    },
    "entidad": {
      "type": "String",
      "required": false,
      "length": 100,
      "precision": null,
      "scale": null,
      "postgresql": {
        "columnName": "entidad",
        "dataType": "varchar",
        "dataLength": 100,
        "dataPrecision": null,
        "dataScale": null,
        "nullable": "Y"
      },
      "_selectable": true
    },"apepaterno": {
      "type": "String",
      "required": false,
      "length": 100,
      "precision": null,
      "scale": null,
      "postgresql": {
        "columnName": "apepaterno",
        "dataType": "varchar",
        "dataLength": 100,
        "dataPrecision": null,
        "dataScale": null,
        "nullable": "N"
      },
      "_selectable": true
    },
    "apematerno": {
      "type": "String",
      "required": false,
      "length": 100,
      "precision": null,
      "scale": null,
      "postgresql": {
        "columnName": "apematerno",
        "dataType": "varchar",
        "dataLength": 100,
        "dataPrecision": null,
        "dataScale": null,
        "nullable": "N"
      },
      "_selectable": true
    }, "dni": {
      "type": "String",
      "required": true,
      "length": 100,
      "precision": null,
      "scale": null,
      "postgresql": {
        "columnName": "dni",
        "dataType": "varchar",
        "dataLength": 100,
        "dataPrecision": null,
        "dataScale": null,
        "nullable": "N"
      },
      "_selectable": false
    }, "ingreso": {
      "type": "Number",
      "required": true,
      "length": 100,
      "precision": null,
      "scale": null,
      "postgresql": {
        "columnName": "ingreso",
        "dataType": "int8",
        "dataLength": 32,
        "dataPrecision": null,
        "dataScale": null,
        "nullable": "Y"
      },
      "_selectable": false
    },
    "IMEI": {
      "type": "String",
      "required": false,
      "length": 100,
      "precision": null,
      "scale": null,
      "postgresql": {
        "columnName": "IMEI",
        "dataType": "varchar",
        "dataLength": 50,
        "dataPrecision": null,
        "dataScale": null,
        "nullable": "Y"
      },
      "_selectable": false
    },
    "email": {
      "type": "String",
      "required": true,
      "length": 100,
      "precision": null,
      "scale": null,
      "postgresql": {
        "columnName": "email",
        "dataType": "varchar",
        "dataLength": 50,
        "dataPrecision": null,
        "dataScale": null,
        "nullable": "Y"
      },
      "_selectable": false
    }
  },
  "validations": [],
  "relations": {},
  "acls": [],
  "methods": {}
}
