{
  "name": "Contract",
  "base": "PersistedModel",
  "idInjection": false,
  "options": {
    "validateUpsert": true
  },
  "postgresql": {
    "schema": "ibmx_a07e6d02edaf552",
    "table": "tdp_contract"
  },
  "properties": {
    "id": {
      "type": "Number",
      "id": true,
      "required": true,
      "length": null,
      "precision": 10,
      "scale": 0,
      "postgresql": {
        "columnName": "id",
        "dataType": "int",
        "dataLength": null,
        "dataPrecision": 10,
        "dataScale": 0,
        "nullable": "N"
      },
      "_selectable": false
    },
    "auxiliar": {
      "type": "Number",
      "required": false,
      "length": null,
      "precision": 10,
      "scale": 0,
      "postgresql": {
        "columnName": "auxiliar",
        "dataType": "int",
        "dataLength": null,
        "dataPrecision": 10,
        "dataScale": 0,
        "nullable": "Y"
      },
      "_selectable": true
    },
    "campo": {
      "type": "String",
      "required": false,
      "length": 100,
      "precision": null,
      "scale": null,
      "postgresql": {
        "columnName": "campo",
        "dataType": "character varying",
        "dataLength": 1024,
        "dataPrecision": 10,
        "dataScale": 0,
        "nullable": "Y"
      },
      "_selectable": true
    },
    "category": {
      "type": "String",
      "required": false,
      "length": 100,
      "precision": null,
      "scale": null,
      "postgresql": {
        "columnName": "category",
        "dataType": "character varying",
        "dataLength": 100,
        "dataPrecision": 10,
        "dataScale": 0,
        "nullable": "Y"
      },
      "_selectable": true
    },
    "appvalue": {
      "type": "String",
      "required": false,
      "length": 100,
      "precision": null,
      "scale": null,
      "postgresql": {
        "columnName": "appvalue",
        "dataType": "text",
        "dataLength": 100,
        "dataPrecision": 10,
        "dataScale": 0,
        "nullable": "Y"
      },
      "_selectable": true
    },
    "webvalue": {
      "type": "String",
      "required": false,
      "length": 100,
      "precision": null,
      "scale": null,
      "postgresql": {
        "columnName": "webvalue",
        "dataType": "text",
        "dataLength": 100,
        "dataPrecision": 10,
        "dataScale": 0,
        "nullable": "Y"
      },
      "_selectable": true
    },
    "public": {
      "type": "Boolean",
      "required": false,
      "length": 100,
      "precision": null,
      "scale": null,
      "postgresql": {
        "columnName": "public",
        "dataType": "boolean",
        "dataLength": 100,
        "dataPrecision": 10,
        "dataScale": 0,
        "nullable": "Y"
      },
      "_selectable": true
    },
    "type": {
      "type": "String",
      "required": false,
      "length": 100,
      "precision": null,
      "scale": null,
      "postgresql": {
        "columnName": "type",
        "dataType": "character varying",
        "dataLength": 2,
        "dataPrecision": 10,
        "dataScale": 0,
        "nullable": "Y"
      },
      "_selectable": true
    },
    "domain": {
      "type": "String",
      "required": false,
      "length": 20,
      "precision": null,
      "scale": null,
      "postgresql": {
        "columnName": "domain",
        "dataType": "character varying",
        "dataLength": 20,
        "dataPrecision": 10,
        "dataScale": 0,
        "nullable": "Y"
      },
      "_selectable": true
    }
  },
  "validations": [],
  "relations": {},
  "acls": [],
  "methods": {}
}