{
  "name": "Webprofile",
  "base": "PersistedModel",
  "idInjection": false,
  "options": {
    "validateUpsert": true
  },
  "postgresql": {
    "schema": "ibmx_a07e6d02edaf552",
    "table": "webprofile"
  },
  "properties": {
    "id": {
      "type": "String",
      "required": false,
      "length": 50,
      "precision": null,
      "scale": null,
      "id": true,
      "postgresql": {
        "columnName": "id",
        "dataType": "serial8",
        "dataLength": 8,
        "dataPrecision": null,
        "dataScale": null,
        "nullable": "N"
      },
      "_selectable": false
    },
    "name": {
      "type": "String",
      "required": true,
      "length": 45,
      "precision": null,
      "scale": null,
      "postgresql": {
        "columnName": "name",
        "dataType": "varchar",
        "dataLength": 45,
        "dataPrecision": null,
        "dataScale": null,
        "nullable": "N"
      },
      "_selectable": false
    },
    "registeredtime": {
      "type": "Date",
      "required": true,
      "length": null,
      "precision": null,
      "scale": null,
      "postgresql": {
        "columnName": "registeredtime",
        "dataType": "timestamp",
        "dataLength": null,
        "dataPrecision": null,
        "dataScale": null,
        "nullable": "N"
      },
      "_selectable": false
    },
    "lastupdatetime": {
      "type": "Date",
      "required": false,
      "length": null,
      "precision": null,
      "scale": null,
      "postgresql": {
        "columnName": "lastupdatetime",
        "dataType": "datetime",
        "dataLength": null,
        "dataPrecision": null,
        "dataScale": null,
        "nullable": "Y"
      },
      "_selectable": true
    }
  },
  "validations": [],
  "relations": {
    "webscreens": {
      "type": "hasMany",
      "model": "Webscreen",
      "foreignKey": "webprofileid",
      "through": "Webprofilescreen"
    }
  }, 
  "acls": [
    {
      "accessType": "READ",
      "principalType": "ROLE",
      "principalId": "$everyone",
      "permission": "DENY"
    },
    {
      "accessType": "READ",
      "principalType": "ROLE",
      "principalId": "authorized",
      "permission": "ALLOW"
    },
    {
      "accessType": "WRITE",
      "principalType": "ROLE",
      "principalId": "$everyone",
      "permission": "DENY"
    },
    {
      "accessType": "WRITE",
      "principalType": "ROLE",
      "principalId": "authorized",
      "permission": "ALLOW"
    },
    {
      "principalType": "ROLE",
      "principalId": "$everyone",
      "permission": "DENY",
      "property": "upload"
    },
    {
      "principalType": "ROLE",
      "principalId": "authorized",
      "permission": "ALLOW",
      "property": "upload"
    },
    {
      "principalType": "ROLE",
      "principalId": "$everyone",
      "permission": "DENY",
      "property": "reset"
    },
    {
      "principalType": "ROLE",
      "principalId": "authorized",
      "permission": "ALLOW",
      "property": "reset"
    },
    {
      "principalType": "ROLE",
      "principalId": "$owner",
      "permission": "ALLOW",
      "property": "__get__webscreens"
    }
  ],
  "methods": {}
}
